…
```r
starwars %>% 
  dplyr::count(homeworld, sort = TRUE)
```

```
## # A tibble: 49 x 2
##    homeworld     n
##    <chr>     <int>
##  1 Naboo        11
##  2 Tatooine     10
##  3 <NA>         10
##  4 Alderaan      3
##  5 Coruscant     3
##  6 Kamino        3
##  7 Corellia      2
##  8 Kashyyyk      2
##  9 Mirial        2
## 10 Ryloth        2
## # ... with 39 more rows
```

### Find distinct values

Using <span style="background-color: #E0E0E0">dplyr::distinct()</span> you can find all distinct/unique values, in this case all the homeworlds

```r
starwars %>% 
  dplyr::distinct(homeworld)
```

```
## # A tibble: 49 x 1
##    homeworld 
##    <chr>     
##  1 Tatooine  
##  2 Naboo     
##  3 Alderaan  
##  4 Stewjon   
##  5 Eriadu    
##  6 Kashyyyk  
##  7 Corellia  
##  8 Rodia     
##  9 Nal Hutta 
## 10 Bestine IV
## # ... with 39 more rows
```

## Grouping {.tabset}

The dplyr verbs are particularly powerful when you apply them to grouped data frames (grouped_df objects). 

The most important grouping verb is <span style="background-color: #E0E0E0"group_by()</span> it takes a data frame and one or more variables to group by:

```r
starwars %>% 
  select(name, species) %>% 
  group_by(species) 
```

```
## # A tibble: 87 x 2
## # Groups:   species [38]
##    name               species
##    <chr>              <chr>  
##  1 Luke Skywalker     Human  
##  2 C-3PO              Droid  
##  3 R2-D2              Droid  
##  4 Darth Vader        Human  
##  5 Leia Organa        Human  
##  6 Owen Lars          Human  
##  7 Beru Whitesun lars Human  
##  8 R5-D4              Droid  
##  9 Biggs Darklighter  Human  
## 10 Obi-Wan Kenobi     Human  
## # ... with 77 more rows
```
…
```
## `summarise()` has grouped output by 'eye_color'. You can override using the `.groups` argument.
```

```r
by_eye_home
```

```
## # A tibble: 66 x 3
## # Groups:   eye_color [15]
##    eye_color homeworld   mean_height
##    <chr>     <chr>             <dbl>
##  1 black     Dorin               188
##  2 black     Glee Anselm         196
##  3 black     Kamino              221
##  4 black     Rodia               173
##  5 black     Shili               178
##  6 black     Sullust             160
##  7 black     Troiken             122
##  8 black     Utapau              206
##  9 black     <NA>                NaN
## 10 blue      Bespin              175
## # ... with 56 more rows
```
…
